<?xml version="1.0" encoding="utf-8"?>
<!-- Generator: Adobe Illustrator 21.0.0, SVG Export Plug-In . SVG Version: 6.00 Build 0)  -->
<svg version="1.1" id="Camada_1" xmlns="http://www.w3.org/2000/svg" xmlns:xlink="http://www.w3.org/1999/xlink" x="0px" y="0px"
	 viewBox="0 0 29.6 29.6" style="enable-background:new 0 0 29.6 29.6;" xml:space="preserve">
<style type="text/css">
	.st0{display:none;fill:#494949;}
	.st1{fill:#5E5E5E;}
	.st2{display:none;fill:#FFFFFF;}
	.st3{display:none;}
	.st4{display:inline;opacity:0.15;fill:#292F33;enable-background:new    ;}
	.st5{fill:#FFFFFF;}
</style>
<title>Glyph</title>
<path class="st0" d="M14.8,7.2c-4.2,0-7.6,3.4-7.6,7.6s3.4,7.6,7.6,7.6s7.6-3.4,7.6-7.6S19,7.2,14.8,7.2C14.8,7.2,14.8,7.2,14.8,7.2
	z M14.8,19.7c-2.7,0-4.9-2.2-4.9-4.9s2.2-4.9,4.9-4.9s4.9,2.2,4.9,4.9S17.5,19.7,14.8,19.7L14.8,19.7z"/>
<circle class="st0" cx="22.7" cy="6.9" r="1.8"/>
<path class="st0" d="M28.8,5.1c-0.8-2-2.3-3.6-4.3-4.3c-1.1-0.4-2.4-0.7-3.6-0.7C19.3,0,18.8,0,14.8,0s-4.5,0-6.1,0.1
	c-1.2,0-2.4,0.3-3.6,0.7c-2,0.8-3.6,2.3-4.3,4.3C0.3,6.2,0.1,7.5,0.1,8.7C0,10.3,0,10.8,0,14.8s0,4.5,0.1,6.1c0,1.2,0.3,2.4,0.7,3.6
	c0.8,2,2.3,3.6,4.3,4.3c1.1,0.4,2.4,0.7,3.6,0.7c1.6,0.1,2.1,0.1,6.1,0.1s4.5,0,6.1-0.1c1.2,0,2.4-0.3,3.6-0.7
	c2-0.8,3.6-2.3,4.3-4.3c0.4-1.1,0.7-2.4,0.7-3.6c0.1-1.6,0.1-2.1,0.1-6.1s0-4.5-0.1-6.1C29.5,7.5,29.2,6.3,28.8,5.1z M26.8,20.8
	c0,0.9-0.2,1.9-0.5,2.8c-0.5,1.3-1.5,2.3-2.8,2.8c-0.9,0.3-1.8,0.5-2.7,0.5c-1.6,0.1-2,0.1-6,0.1s-4.4,0-6-0.1
	c-0.9,0-1.9-0.2-2.7-0.5c-1.3-0.5-2.3-1.5-2.8-2.8c-0.3-0.9-0.5-1.8-0.5-2.7c-0.1-1.6-0.1-2-0.1-6s0-4.4,0.1-6
	c0-0.9,0.2-1.9,0.5-2.8C3.7,4.7,4.7,3.7,6,3.2c0.9-0.3,1.8-0.5,2.7-0.5c1.6-0.1,2-0.1,6-0.1s4.4,0,6,0.1c0.9,0,1.9,0.2,2.7,0.5
	c1.3,0.5,2.3,1.5,2.8,2.8c0.3,0.9,0.5,1.8,0.5,2.7c0.1,1.6,0.1,2,0.1,6S26.9,19.2,26.8,20.8L26.8,20.8z"/>
<path id="Blue_1_" class="st1" d="M27.9,29.6c0.9,0,1.6-0.7,1.6-1.6V1.8c0-0.9-0.7-1.6-1.6-1.6H1.8c-0.9,0-1.6,0.7-1.6,1.6v26.1
	c0,0.9,0.7,1.6,1.6,1.6H27.9z"/>
<path id="f" class="st2" d="M20.4,29.6V18.2h3.8l0.6-4.4h-4.4v-2.8c0-1.3,0.4-2.2,2.2-2.2l2.3,0v-4c-0.4-0.1-1.8-0.2-3.4-0.2
	c-3.4,0-5.7,2.1-5.7,5.9v3.3H12v4.4h3.8v11.4H20.4z"/>
<g id="_x31_0_x2013_20_x25__Black_Tint" class="st3">
	<rect x="0.2" y="0.2" class="st4" width="29.1" height="29.1"/>
</g>
<g id="Logo__x2014__FIXED">
	<g>
		<path class="st5" d="M11.4,22.2c6.9,0,10.6-5.7,10.6-10.6c0-0.2,0-0.3,0-0.5c0.7-0.5,1.4-1.2,1.9-1.9c-0.7,0.3-1.4,0.5-2.1,0.6
			c0.8-0.5,1.4-1.2,1.6-2.1c-0.7,0.4-1.5,0.7-2.4,0.9c-0.7-0.7-1.7-1.2-2.7-1.2c-2.1,0-3.7,1.7-3.7,3.7c0,0.3,0,0.6,0.1,0.9
			c-3.1-0.2-5.9-1.6-7.7-3.9C6.6,8.6,6.4,9.3,6.4,9.9c0,1.3,0.7,2.4,1.7,3.1c-0.6,0-1.2-0.2-1.7-0.5c0,0,0,0,0,0.1
			c0,1.8,1.3,3.3,3,3.7c-0.3,0.1-0.6,0.1-1,0.1c-0.2,0-0.5,0-0.7-0.1c0.5,1.5,1.9,2.6,3.5,2.6c-1.3,1-2.9,1.6-4.6,1.6
			c-0.3,0-0.6,0-0.9-0.1C7.3,21.6,9.3,22.2,11.4,22.2"/>
	</g>
</g>
</svg>
