<?xml version="1.0" encoding="utf-8"?>
<!-- Generator: Adobe Illustrator 21.0.0, SVG Export Plug-In . SVG Version: 6.00 Build 0)  -->
<svg version="1.1" id="Camada_1" xmlns="http://www.w3.org/2000/svg" xmlns:xlink="http://www.w3.org/1999/xlink" x="0px" y="0px"
	 viewBox="0 0 59.2 29.6" style="enable-background:new 0 0 59.2 29.6;" xml:space="preserve">
<style type="text/css">
	.st0{display:none;fill:#494949;}
	.st1{display:none;fill:#5E5E5E;}
	.st2{display:none;fill:#FFFFFF;}
	.st3{display:none;}
	.st4{display:inline;opacity:0.15;fill:#292F33;enable-background:new    ;}
	.st5{display:inline;}
	.st6{fill:#FFFFFF;}
	.st7{fill:#5E5E5E;}
</style>
<title>Glyph</title>
<path class="st0" d="M14.8,7.2c-4.2,0-7.6,3.4-7.6,7.6s3.4,7.6,7.6,7.6s7.6-3.4,7.6-7.6S19,7.2,14.8,7.2L14.8,7.2z M14.8,19.7
	c-2.7,0-4.9-2.2-4.9-4.9s2.2-4.9,4.9-4.9s4.9,2.2,4.9,4.9S17.5,19.7,14.8,19.7L14.8,19.7z"/>
<circle class="st0" cx="22.7" cy="6.9" r="1.8"/>
<path class="st0" d="M28.8,5.1c-0.8-2-2.3-3.6-4.3-4.3c-1.1-0.4-2.4-0.7-3.6-0.7C19.3,0,18.8,0,14.8,0s-4.5,0-6.1,0.1
	c-1.2,0-2.4,0.3-3.6,0.7c-2,0.8-3.6,2.3-4.3,4.3C0.3,6.2,0.1,7.5,0.1,8.7C0,10.3,0,10.8,0,14.8s0,4.5,0.1,6.1c0,1.2,0.3,2.4,0.7,3.6
	c0.8,2,2.3,3.6,4.3,4.3c1.1,0.4,2.4,0.7,3.6,0.7c1.6,0.1,2.1,0.1,6.1,0.1s4.5,0,6.1-0.1c1.2,0,2.4-0.3,3.6-0.7
	c2-0.8,3.6-2.3,4.3-4.3c0.4-1.1,0.7-2.4,0.7-3.6c0.1-1.6,0.1-2.1,0.1-6.1s0-4.5-0.1-6.1C29.5,7.5,29.2,6.3,28.8,5.1z M26.8,20.8
	c0,0.9-0.2,1.9-0.5,2.8c-0.5,1.3-1.5,2.3-2.8,2.8c-0.9,0.3-1.8,0.5-2.7,0.5c-1.6,0.1-2,0.1-6,0.1s-4.4,0-6-0.1
	c-0.9,0-1.9-0.2-2.7-0.5c-1.3-0.5-2.3-1.5-2.8-2.8c-0.3-0.9-0.5-1.8-0.5-2.7c-0.1-1.6-0.1-2-0.1-6s0-4.4,0.1-6C2.8,8,3,7,3.3,6.1
	C3.7,4.7,4.7,3.7,6,3.2c0.9-0.3,1.8-0.5,2.7-0.5c1.6-0.1,2-0.1,6-0.1s4.4,0,6,0.1c0.9,0,1.9,0.2,2.7,0.5c1.3,0.5,2.3,1.5,2.8,2.8
	c0.3,0.9,0.5,1.8,0.5,2.7c0.1,1.6,0.1,2,0.1,6S26.9,19.2,26.8,20.8L26.8,20.8z"/>
<path id="Blue_1_" class="st1" d="M27.9,29.6c0.9,0,1.6-0.7,1.6-1.6V1.8c0-0.9-0.7-1.6-1.6-1.6H1.8c-0.9,0-1.6,0.7-1.6,1.6v26.1
	c0,0.9,0.7,1.6,1.6,1.6h26.1V29.6z"/>
<path id="f" class="st2" d="M20.4,29.6V18.2h3.8l0.6-4.4h-4.4V11c0-1.3,0.4-2.2,2.2-2.2h2.3v-4c-0.4-0.1-1.8-0.2-3.4-0.2
	c-3.4,0-5.7,2.1-5.7,5.9v3.3H12v4.4h3.8v11.4C15.8,29.6,20.4,29.6,20.4,29.6z"/>
<g id="_x31_0_x2013_20_x25__Black_Tint" class="st3">
	<rect x="0.2" y="0.2" class="st4" width="29.1" height="29.1"/>
</g>
<g id="Logo__x2014__FIXED" class="st3">
	<g class="st5">
		<path class="st6" d="M11.4,22.2c6.9,0,10.6-5.7,10.6-10.6c0-0.2,0-0.3,0-0.5c0.7-0.5,1.4-1.2,1.9-1.9c-0.7,0.3-1.4,0.5-2.1,0.6
			c0.8-0.5,1.4-1.2,1.6-2.1c-0.7,0.4-1.5,0.7-2.4,0.9c-0.7-0.7-1.7-1.2-2.7-1.2c-2.1,0-3.7,1.7-3.7,3.7c0,0.3,0,0.6,0.1,0.9
			c-3.1-0.2-5.9-1.6-7.7-3.9C6.6,8.6,6.4,9.3,6.4,9.9c0,1.3,0.7,2.4,1.7,3.1c-0.6,0-1.2-0.2-1.7-0.5c0,0,0,0,0,0.1
			c0,1.8,1.3,3.3,3,3.7c-0.3,0.1-0.6,0.1-1,0.1c-0.2,0-0.5,0-0.7-0.1c0.5,1.5,1.9,2.6,3.5,2.6c-1.3,1-2.9,1.6-4.6,1.6
			c-0.3,0-0.6,0-0.9-0.1C7.3,21.6,9.3,22.2,11.4,22.2"/>
	</g>
</g>
<path id="lozenge_2_" class="st7" d="M56,8.2c0,0-0.3-2.2-1.3-3.2c-1.2-1.3-2.6-1.3-3.2-1.4C47,3.4,40.3,3.4,40.3,3.4h0
	c0,0-6.7,0-11.2,0.3c-0.6,0.1-2,0.1-3.2,1.4c-1,1-1.3,3.2-1.3,3.2s-0.3,2.6-0.3,5.2v2.4c0,2.6,0.3,5.2,0.3,5.2s0.3,2.2,1.3,3.2
	c1.2,1.3,2.8,1.2,3.5,1.4c2.6,0.2,10.9,0.3,10.9,0.3s6.7,0,11.2-0.3c0.6-0.1,2-0.1,3.2-1.4c1-1,1.3-3.2,1.3-3.2s0.3-2.6,0.3-5.2
	v-2.4C56.3,10.8,56,8.2,56,8.2z"/>
<path id="u_2_" class="st7" d="M22.6,21.6h-2v-1.2c-0.8,0.9-1.4,1.3-2.1,1.3c-0.6,0-1.1-0.3-1.3-0.8c-0.1-0.3-0.2-0.8-0.2-1.6v-8.6
	h2v8.1c0,0.5,0,0.6,0,0.8c0,0.3,0.2,0.4,0.4,0.4c0.4,0,0.7-0.3,1.2-0.9v-8.3h2V21.6z"/>
<path id="o_2_" class="st7" d="M15.4,14.3c0-1.2-0.2-2-0.6-2.6c-0.5-0.7-1.4-1-2.3-1c-1,0-1.7,0.3-2.3,1c-0.4,0.5-0.6,1.4-0.6,2.6
	l0,3.9c0,1.2,0.2,1.9,0.6,2.5c0.5,0.7,1.4,1.1,2.3,1.1s1.8-0.4,2.3-1.1c0.4-0.5,0.6-1.3,0.6-2.5V14.3z M13.4,18.3
	c0.1,1.1-0.2,1.6-0.9,1.6c-0.6,0-1-0.5-0.9-1.6V14c-0.1-1.1,0.2-1.6,0.9-1.6c0.6,0,1,0.5,0.9,1.6L13.4,18.3z"/>
<path id="y_2_" class="st7" d="M7.4,15.6v5.9H5.2v-5.9c0,0-2.2-7.2-2.7-8.6h2.3l1.5,5.7l1.5-5.7h2.3L7.4,15.6z"/>
<path id="e_1_" class="st6" d="M53.7,16.5l0-2.2c0-1.1-0.2-2-0.6-2.5c-0.5-0.7-1.3-1.1-2.3-1.1c-1,0-1.8,0.4-2.3,1.1
	c-0.4,0.5-0.7,1.4-0.7,2.6v3.8c0,1.1,0.3,1.9,0.7,2.5c0.6,0.7,1.3,1.1,2.4,1.1c1,0,1.8-0.4,2.4-1.2c0.2-0.3,0.4-0.7,0.5-1.2
	c0-0.2,0.1-0.6,0.1-1.3v-0.3h-2c0,0.8,0,1.2,0,1.3c-0.1,0.5-0.4,0.8-0.9,0.8c-0.7,0-0.9-0.5-0.9-1.5v-1.9H53.7z M49.8,13.7
	c0-1,0.3-1.3,0.9-1.3c0.6,0,0.9,0.3,0.9,1.3v1.2l-1.8,0V13.7z"/>
<path id="b_1_" class="st6" d="M44.6,10.6c-0.7,0-1.4,0.4-2.1,1.2l0-4.7h-1.9v14.4h1.9l0-1.1c0.6,0.8,1.4,1.2,2,1.2
	c0.8,0,1.3-0.4,1.6-1.2c0.1-0.5,0.2-1.2,0.2-2.1V14c0-1-0.1-1.7-0.3-2.1C45.9,11.1,45.4,10.6,44.6,10.6z M44.4,18.4
	c0,1.1-0.3,1.5-0.8,1.5c-0.3,0-0.7-0.2-1-0.5l0-6.5c0.3-0.3,0.7-0.5,1-0.5c0.6,0,0.8,0.3,0.8,1.4V18.4z"/>
<path id="u_1_" class="st6" d="M39,21.6h-2v-1.2c-0.8,0.9-1.4,1.3-2.1,1.3c-0.6,0-1.1-0.3-1.3-0.8c-0.1-0.3-0.2-0.8-0.2-1.6v-8.5h2
	v7.9c0,0.5,0,0.6,0,0.8c0,0.3,0.2,0.4,0.4,0.4c0.4,0,0.7-0.3,1.2-0.9v-8.2h2V21.6z"/>
<polygon id="T" class="st6" points="31.3,21.6 29.2,21.6 29.2,9.2 26.9,9.2 26.9,7.2 33.7,7.2 33.7,9.2 31.3,9.2 "/>
</svg>
